Hydro Pump Turbine Operation · HydroPowerSimulations.jl
…
julia> var = read_variable(
           res,
           "ActivePowerVariable__HydroPumpTurbine";
           table_format = TableFormat.WIDE,
       )24×2 DataFrame
 Row │ DateTime             Bat_pump
     │ DateTime             Float64?
─────┼───────────────────────────────
   1 │ 2024-01-01T00:00:00   2.43538
   2 │ 2024-01-01T01:00:00   0.0
   3 │ 2024-01-01T02:00:00   0.0
   4 │ 2024-01-01T03:00:00   0.0
   5 │ 2024-01-01T04:00:00   0.0
   6 │ 2024-01-01T05:00:00   0.0
   7 │ 2024-01-01T06:00:00   0.0
   8 │ 2024-01-01T07:00:00   0.0
  ⋮  │          ⋮              ⋮
  18 │ 2024-01-01T17:00:00  18.6654
  19 │ 2024-01-01T18:00:00  21.6969
  20 │ 2024-01-01T19:00:00  13.1835
  21 │ 2024-01-01T20:00:00  -0.0
  22 │ 2024-01-01T21:00:00   0.0
  23 │ 2024-01-01T22:00:00   0.0
  24 │ 2024-01-01T23:00:00  -0.0
                       9 rows omitted
its pump usage

julia> var = read_variable(
           res,
           "ActivePowerPumpVariable__HydroPumpTurbine";
           table_format = TableFormat.WIDE,
       )24×2 DataFrame
 Row │ DateTime             Bat_pump
     │ DateTime             Float64?
─────┼───────────────────────────────
   1 │ 2024-01-01T00:00:00       0.0
   2 │ 2024-01-01T01:00:00       0.0
   3 │ 2024-01-01T02:00:00       0.0
   4 │ 2024-01-01T03:00:00       0.0
   5 │ 2024-01-01T04:00:00       0.0
   6 │ 2024-01-01T05:00:00       0.0
   7 │ 2024-01-01T06:00:00       0.0
   8 │ 2024-01-01T07:00:00       0.0
  ⋮  │          ⋮              ⋮
  18 │ 2024-01-01T17:00:00       0.0
  19 │ 2024-01-01T18:00:00       0.0
  20 │ 2024-01-01T19:00:00       0.0
  21 │ 2024-01-01T20:00:00       0.0
  22 │ 2024-01-01T21:00:00       0.0
  23 │ 2024-01-01T22:00:00       0.0
  24 │ 2024-01-01T23:00:00       0.0
                       9 rows omitted
…
