Operation Problem with HydroPowerSimulations.jl · HydroPowerSimulations.jl
…
PowerSimulations Problem Parameters Results
┌───────────────────────────────────────────────┐
│ ActivePowerTimeSeriesParameter__HydroDispatch │
│ ActivePowerTimeSeriesParameter__PowerLoad     │
└───────────────────────────────────────────────┘

PowerSimulations Problem Variables Results
┌──────────────────────────────────────┐
│ ActivePowerVariable__ThermalStandard │
│ ActivePowerVariable__HydroDispatch   │
│ FlowActivePowerVariable__Line        │
└──────────────────────────────────────┘
Use read_variable to read in the dispatch variable results for the hydro:

julia> var = read_variable(res, "ActivePowerVariable__HydroDispatch")24×2 DataFrame
 Row │ DateTime             HydroDispatch
     │ DateTime             Float64
─────┼────────────────────────────────────
   1 │ 2024-01-01T00:00:00       188.58
   2 │ 2024-01-01T01:00:00       232.01
   3 │ 2024-01-01T02:00:00       137.149
   4 │ 2024-01-01T03:00:00       136.006
   5 │ 2024-01-01T04:00:00       133.72
   6 │ 2024-01-01T05:00:00        77.718
   7 │ 2024-01-01T06:00:00        86.8608
   8 │ 2024-01-01T07:00:00       219.439
  ⋮  │          ⋮                 ⋮
  18 │ 2024-01-01T17:00:00       269.726
  19 │ 2024-01-01T18:00:00       378.303
  20 │ 2024-01-01T19:00:00       438.877
  21 │ 2024-01-01T20:00:00       466.307
  22 │ 2024-01-01T21:00:00       427.448
  23 │ 2024-01-01T22:00:00       468.593
  24 │ 2024-01-01T23:00:00       114.291
                            9 rows omitted
…
