Water Hydro Reservoir Operation · HydroPowerSimulations.jl
…
PowerSimulations Problem Parameters Results
┌────────────────────────────────────────────┐
│ InflowTimeSeriesParameter__HydroReservoir  │
│ ActivePowerTimeSeriesParameter__PowerLoad  │
│ OutflowTimeSeriesParameter__HydroReservoir │
└────────────────────────────────────────────┘

PowerSimulations Problem Variables Results
┌──────────────────────────────────────────────┐
│ HydroReservoirHeadVariable__HydroReservoir   │
│ WaterSpillageVariable__HydroReservoir        │
│ ActivePowerVariable__HydroTurbine            │
│ FlowActivePowerVariable__Line                │
│ ActivePowerVariable__ThermalStandard         │
│ HydroReservoirVolumeVariable__HydroReservoir │
└──────────────────────────────────────────────┘
Use read_variable to read in the dispatch variable results for the hydro:

julia> var =
           read_variable(res, "ActivePowerVariable__HydroTurbine"; table_format = TableFormat.WIDE)24×2 DataFrame
 Row │ DateTime             Water_Turbine
     │ DateTime             Float64?
─────┼────────────────────────────────────
   1 │ 2024-01-01T00:00:00        190.088
   2 │ 2024-01-01T01:00:00        190.02
   3 │ 2024-01-01T02:00:00        189.951
   4 │ 2024-01-01T03:00:00        189.883
   5 │ 2024-01-01T04:00:00        189.815
   6 │ 2024-01-01T05:00:00        189.747
   7 │ 2024-01-01T06:00:00        189.679
   8 │ 2024-01-01T07:00:00        189.61
  ⋮  │          ⋮                 ⋮
  18 │ 2024-01-01T17:00:00        188.928
  19 │ 2024-01-01T18:00:00        188.86
  20 │ 2024-01-01T19:00:00        188.792
  21 │ 2024-01-01T20:00:00        188.723
  22 │ 2024-01-01T21:00:00        188.655
  23 │ 2024-01-01T22:00:00        188.587
  24 │ 2024-01-01T23:00:00        188.519
                            9 rows omitted
or the water flowing through the turbine (in m³/s):

julia> var = read_expression(
           res,
           "TotalHydroFlowRateTurbineOutgoing__HydroTurbine";
           table_format = TableFormat.WIDE,
       )24×2 DataFrame
 Row │ DateTime             Water_Turbine
     │ DateTime             Float64?
─────┼────────────────────────────────────
   1 │ 2024-01-01T00:00:00           30.0
   2 │ 2024-01-01T01:00:00           30.0
   3 │ 2024-01-01T02:00:00           30.0
   4 │ 2024-01-01T03:00:00           30.0
   5 │ 2024-01-01T04:00:00           30.0
   6 │ 2024-01-01T05:00:00           30.0
   7 │ 2024-01-01T06:00:00           30.0
   8 │ 2024-01-01T07:00:00           30.0
  ⋮  │          ⋮                 ⋮
  18 │ 2024-01-01T17:00:00           30.0
  19 │ 2024-01-01T18:00:00           30.0
  20 │ 2024-01-01T19:00:00           30.0
  21 │ 2024-01-01T20:00:00           30.0
  22 │ 2024-01-01T21:00:00           30.0
  23 │ 2024-01-01T22:00:00           30.0
  24 │ 2024-01-01T23:00:00           30.0
                            9 rows omitted
and the head level of the reservoir:

julia> hydraulic_head = read_variable(
           res,
           "HydroReservoirHeadVariable__HydroReservoir";
           table_format = TableFormat.WIDE,
       )24×2 DataFrame
 Row │ DateTime             Water_Reservoir
     │ DateTime             Float64?
─────┼──────────────────────────────────────
   1 │ 2024-01-01T00:00:00          499.718
   2 │ 2024-01-01T01:00:00          499.486
   3 │ 2024-01-01T02:00:00          499.255
   4 │ 2024-01-01T03:00:00          499.023
   5 │ 2024-01-01T04:00:00          498.791
   6 │ 2024-01-01T05:00:00          498.559
   7 │ 2024-01-01T06:00:00          498.327
   8 │ 2024-01-01T07:00:00          498.096
  ⋮  │          ⋮                  ⋮
  18 │ 2024-01-01T17:00:00          495.778
  19 │ 2024-01-01T18:00:00          495.546
  20 │ 2024-01-01T19:00:00          495.314
  21 │ 2024-01-01T20:00:00          495.082
  22 │ 2024-01-01T21:00:00          494.85
  23 │ 2024-01-01T22:00:00          494.619
  24 │ 2024-01-01T23:00:00          494.387
                              9 rows omitted
…
