Energy Hydro Reservoir Operation · HydroPowerSimulations.jl
…
 PowerSimulations Problem Parameters Results
┌───────────────────────────────────────────┐
│ ActivePowerTimeSeriesParameter__PowerLoad │
│ InflowTimeSeriesParameter__HydroReservoir │
└───────────────────────────────────────────┘

  PowerSimulations Problem Variables Results
┌─────────────────────────────────────────────┐
│ HydroEnergyShortageVariable__HydroReservoir │
│ ActivePowerVariable__ThermalStandard        │
│ HydroEnergySurplusVariable__HydroReservoir  │
│ ActivePowerVariable__HydroTurbine           │
│ EnergyVariable__HydroReservoir              │
│ WaterSpillageVariable__HydroReservoir       │
└─────────────────────────────────────────────┘
Use read_variable to read in the dispatch variable results for the hydro:

julia> var =
           read_variable(res, "ActivePowerVariable__HydroTurbine"; table_format = TableFormat.WIDE)24×2 DataFrame
 Row │ DateTime             HydroEnergyReservoir_turbine 
     │ DateTime             Union{Missing, Float64}      
─────┼───────────────────────────────────────────────────
   1 │ 2024-01-01T00:00:00                      235.666
   2 │ 2024-01-01T01:00:00                      490.435
   3 │ 2024-01-01T02:00:00                       70.2281
   4 │ 2024-01-01T03:00:00                       43.449
   5 │ 2024-01-01T04:00:00                      649.142
   6 │ 2024-01-01T05:00:00                       58.8662
   7 │ 2024-01-01T06:00:00                       88.0143
   8 │ 2024-01-01T07:00:00                      126.928
  ⋮  │          ⋮                        ⋮
  18 │ 2024-01-01T17:00:00                      330.088
  19 │ 2024-01-01T18:00:00                      393.03
  20 │ 2024-01-01T19:00:00                      387.851
  21 │ 2024-01-01T20:00:00                      355.0
  22 │ 2024-01-01T21:00:00                      301.586
  23 │ 2024-01-01T22:00:00                      256.825
  24 │ 2024-01-01T23:00:00                      185.532
                                           9 rows omitted
…
