HydroDispatch with Market Bid Cost · HydroPowerSimulations.jl
…
julia> existing_ts = get_time_series_array(SingleTimeSeries, first(get_components(PowerLoad, sys)), "max_active_power")48×1 TimeSeries.TimeArray{Float64, 1, Dates.DateTime, Vector{Float64}} 2024-01-01T00:00:00 to 2024-01-02T23:00:00
┌─────────────────────┬─────────┐
│                     │ A       │
├─────────────────────┼─────────┤
│ 2024-01-01T00:00:00 │ 2.37819 │
│ 2024-01-01T01:00:00 │  2.1696 │
│ 2024-01-01T02:00:00 │ 2.13286 │
│ 2024-01-01T03:00:00 │ 2.03302 │
│ 2024-01-01T04:00:00 │ 2.00475 │
│ 2024-01-01T05:00:00 │ 2.01501 │
│ 2024-01-01T06:00:00 │ 2.06283 │
│ 2024-01-01T07:00:00 │ 2.13546 │
│          ⋮          │    ⋮    │
│ 2024-01-02T17:00:00 │ 2.93332 │
│ 2024-01-02T18:00:00 │ 3.03353 │
│ 2024-01-02T19:00:00 │ 3.10266 │
│ 2024-01-02T20:00:00 │ 3.20308 │
│ 2024-01-02T21:00:00 │ 3.05404 │
│ 2024-01-02T22:00:00 │ 2.76541 │
│ 2024-01-02T23:00:00 │ 2.65748 │
└─────────────────────┴─────────┘
                  33 rows omitted
…
julia> fuel_cost_values = rand(length(tstamps)) .+ 1.0 # Random fuel cost between 1.0 and 2.0 $/MMBTUERROR: UndefVarError: `tstamps` not defined in `Main`
Suggestion: add an appropriate import or assignment. This global was declared but not assigned.
julia> fuel_cost_tarray = TimeArray(tstamps, fuel_cost_values)ERROR: UndefVarError: `TimeArray` not defined in `Main`
Suggestion: check for spelling errors or missing imports.
Hint: a global variable of this name also exists in TimeSeries.
julia> fuel_cost_ts = SingleTimeSeries(name = "fuel_cost", data = fuel_cost_tarray)ERROR: UndefVarError: `fuel_cost_tarray` not defined in `Main`
Suggestion: add an appropriate import or assignment. This global was declared but not assigned.
julia> set_fuel_cost!(sys, brighton, fuel_cost_ts)ERROR: UndefVarError: `fuel_cost_ts` not defined in `Main`
Suggestion: check for spelling errors or missing imports.
Add a market bid cost to the hydro unit
We again grab the timestamps from an existing time series:

julia> existing_ts = get_time_series_array(SingleTimeSeries, first(get_components(PowerLoad, sys)), "max_active_power")48×1 TimeSeries.TimeArray{Float64, 1, Dates.DateTime, Vector{Float64}} 2024-01-01T00:00:00 to 2024-01-02T23:00:00
┌─────────────────────┬─────────┐
│                     │ A       │
├─────────────────────┼─────────┤
│ 2024-01-01T00:00:00 │ 2.37819 │
│ 2024-01-01T01:00:00 │  2.1696 │
│ 2024-01-01T02:00:00 │ 2.13286 │
│ 2024-01-01T03:00:00 │ 2.03302 │
│ 2024-01-01T04:00:00 │ 2.00475 │
│ 2024-01-01T05:00:00 │ 2.01501 │
│ 2024-01-01T06:00:00 │ 2.06283 │
│ 2024-01-01T07:00:00 │ 2.13546 │
│          ⋮          │    ⋮    │
│ 2024-01-02T17:00:00 │ 2.93332 │
│ 2024-01-02T18:00:00 │ 3.03353 │
│ 2024-01-02T19:00:00 │ 3.10266 │
│ 2024-01-02T20:00:00 │ 3.20308 │
│ 2024-01-02T21:00:00 │ 3.05404 │
│ 2024-01-02T22:00:00 │ 2.76541 │
│ 2024-01-02T23:00:00 │ 2.65748 │
└─────────────────────┴─────────┘
                  33 rows omitted
…
